{
	"info": {
		"_postman_id": "603ab757-9a86-4627-ae0c-90ee2b18846d",
		"name": "Academia Moviles - Tarea NodeJS",
		"schema": "https://schema.getpostman.com/json/collection/v2.1.0/collection.json"
	},
	"item": [
		{
			"name": "USERS",
			"item": [
				{
					"name": "LIST USERS",
					"request": {
						"method": "GET",
						"header": [],
						"url": {
							"raw": "http://localhost:3000/api/users",
							"protocol": "http",
							"host": [
								"localhost"
							],
							"port": "3000",
							"path": [
								"api",
								"users"
							]
						}
					},
					"response": []
				},
				{
					"name": "LIST USER",
					"request": {
						"method": "GET",
						"header": [],
						"url": {
							"raw": "http://localhost:3000/api/users/60b2759ba1b8913090356cad",
							"protocol": "http",
							"host": [
								"localhost"
							],
							"port": "3000",
							"path": [
								"api",
								"users",
								"60b2759ba1b8913090356cad"
							]
						}
					},
					"response": []
				},
				{
					"name": "CREATE USER",
					"request": {
						"method": "POST",
						"header": [],
						"body": {
							"mode": "raw",
							"raw": "{\r\n    \"email\": \"lizardo@gmail.com\",\r\n    \"name\": \"Lizardo\",\r\n    \"lastName\": \"Reyes\",\r\n    \"password\": \"123456\"\r\n}",
							"options": {
								"raw": {
									"language": "json"
								}
							}
						},
						"url": {
							"raw": "http://localhost:3000/api/users",
							"protocol": "http",
							"host": [
								"localhost"
							],
							"port": "3000",
							"path": [
								"api",
								"users"
							]
						}
					},
					"response": []
				}
			]
		},
		{
			"name": "BURGERS",
			"item": [
				{
					"name": "LIST BURGERS",
					"request": {
						"method": "GET",
						"header": [],
						"url": {
							"raw": "{{url}}/api/burgers/",
							"host": [
								"{{url}}"
							],
							"path": [
								"api",
								"burgers",
								""
							]
						}
					},
					"response": []
				},
				{
					"name": "LIST BURGERS DELETED",
					"request": {
						"method": "GET",
						"header": [
							{
								"key": "Authorization",
								"value": "{{token}}",
								"type": "text"
							}
						],
						"url": {
							"raw": "{{url}}/api/burgers/deleted",
							"host": [
								"{{url}}"
							],
							"path": [
								"api",
								"burgers",
								"deleted"
							]
						}
					},
					"response": []
				},
				{
					"name": "SHOW BURGER",
					"request": {
						"method": "GET",
						"header": [],
						"url": {
							"raw": "{{url}}/api/burgers/60b27dc3a05ec74c14195beb",
							"host": [
								"{{url}}"
							],
							"path": [
								"api",
								"burgers",
								"60b27dc3a05ec74c14195beb"
							]
						}
					},
					"response": []
				},
				{
					"name": "CREATE BURGER",
					"request": {
						"method": "POST",
						"header": [
							{
								"key": "Authorization",
								"value": "{{token}}",
								"type": "text"
							}
						],
						"body": {
							"mode": "raw",
							"raw": "{\r\n    \"image\": \"https://www.burgerking.pe/Multimedia/productos/COMBO%20WHOPPER%C2%AE%20CON%20QUESO.png\",\r\n    \"name\": \"COMBO WHOPPER® CON QUESO\",\r\n    \"price\": 19.80,\r\n    \"description\": \"Hamburguesa grande 100% carne de res a la parrilla, jugosos tomates, frescas lechugas, deliciosa mayonesa, queso, ketchup, pepinillos y aros de cebolla, 1 papa, 1 gaseosa personal.\",\r\n    \"calories\": \"920\",\r\n    \"proteins\": \"36g\",\r\n    \"carbohydrates\": \"64g\",\r\n    \"sugars\": \"47g\",\r\n    \"grease\": \"59g\",\r\n    \"saturated_fat\": \"20mg\",\r\n    \"trans_fat\": \"0.5g\",\r\n    \"sodium\": \"0mg\"\r\n}",
							"options": {
								"raw": {
									"language": "json"
								}
							}
						},
						"url": {
							"raw": "{{url}}/api/burgers",
							"host": [
								"{{url}}"
							],
							"path": [
								"api",
								"burgers"
							]
						}
					},
					"response": []
				},
				{
					"name": "UPDATE BURGER",
					"request": {
						"method": "PATCH",
						"header": [
							{
								"key": "Authorization",
								"value": "{{token}}",
								"type": "text"
							}
						],
						"body": {
							"mode": "raw",
							"raw": "{\r\n    \"image\": \"https://www.burgerking.pe/Multimedia/productos/COMBO%20WHOPPER%C2%AE%20CON%20QUESO.png\",\r\n    \"name\": \"COMBO WHOPPER® CON QUESO 2\",\r\n    \"price\": 19.80,\r\n    \"description\": \"Hamburguesa grande 100% carne de res a la parrilla, jugosos tomates, frescas lechugas, deliciosa mayonesa, queso, ketchup, pepinillos y aros de cebolla, 1 papa, 1 gaseosa personal.\",\r\n    \"calories\": \"920\",\r\n    \"proteins\": \"36g\",\r\n    \"carbohydrates\": \"64g\",\r\n    \"sugars\": \"47g\",\r\n    \"grease\": \"59g\",\r\n    \"saturated_fat\": \"20mg\",\r\n    \"trans_fat\": \"0.5g\",\r\n    \"sodium\": \"1mg\",\r\n    \"_id\": \"60b279b1f8ecc97f145e7c8d\"\r\n}",
							"options": {
								"raw": {
									"language": "json"
								}
							}
						},
						"url": {
							"raw": "{{url}}/api/burgers/",
							"host": [
								"{{url}}"
							],
							"path": [
								"api",
								"burgers",
								""
							]
						}
					},
					"response": []
				},
				{
					"name": "DELETE BURGER",
					"request": {
						"method": "DELETE",
						"header": [
							{
								"key": "Authorization",
								"value": "{{token}}",
								"type": "text"
							}
						],
						"body": {
							"mode": "raw",
							"raw": "{\r\n    \"_id\": \"60b279b1f8ecc97f145e7c8d\"\r\n}",
							"options": {
								"raw": {
									"language": "json"
								}
							}
						},
						"url": {
							"raw": "{{url}}/api/burgers/",
							"host": [
								"{{url}}"
							],
							"path": [
								"api",
								"burgers",
								""
							]
						}
					},
					"response": []
				}
			]
		},
		{
			"name": "AUTH",
			"item": [
				{
					"name": "LOGIN",
					"request": {
						"method": "POST",
						"header": [],
						"body": {
							"mode": "raw",
							"raw": "{\r\n    \"email\": \"lizardo@gmail.com\",\r\n    \"password\": \"123456\"\r\n}",
							"options": {
								"raw": {
									"language": "json"
								}
							}
						},
						"url": {
							"raw": "http://localhost:3000/api/auth",
							"protocol": "http",
							"host": [
								"localhost"
							],
							"port": "3000",
							"path": [
								"api",
								"auth"
							]
						}
					},
					"response": []
				}
			]
		}
	]
}